Guía de Ejercicios
…
2017-08-24

Pregunta 1

library(dplyr)
library(ggplot2)
library(forcats)
library(readr)

Pregunta 2

mpg

## # A tibble: 234 x 11
##    manufacturer      model displ  year   cyl      trans   drv   cty   hwy
##           <chr>      <chr> <dbl> <int> <int>      <chr> <chr> <int> <int>
##  1         audi         a4   1.8  1999     4   auto(l5)     f    18    29
##  2         audi         a4   1.8  1999     4 manual(m5)     f    21    29
##  3         audi         a4   2.0  2008     4 manual(m6)     f    20    31
##  4         audi         a4   2.0  2008     4   auto(av)     f    21    30
##  5         audi         a4   2.8  1999     6   auto(l5)     f    16    26
##  6         audi         a4   2.8  1999     6 manual(m5)     f    18    26
##  7         audi         a4   3.1  2008     6   auto(av)     f    18    27
##  8         audi a4 quattro   1.8  1999     4 manual(m5)     4    18    26
##  9         audi a4 quattro   1.8  1999     4   auto(l5)     4    16    25
## 10         audi a4 quattro   2.0  2008     4 manual(m6)     4    20    28
## # ... with 224 more rows, and 2 more variables: fl <chr>, class <chr>
…
Lo que se obtiene es un gráfico de puntos al cuál se agrega una tendencia, la cual nos dice que se espera que un vehículo con una cilindrada muy baja tenga un mejor rendimiento en autopista que uno de alta cilindrada.

Pregunta 10

# install.packages("babynames")
library(babynames)
babynames

## # A tibble: 1,858,689 x 5
##     year   sex      name     n       prop
##    <dbl> <chr>     <chr> <int>      <dbl>
##  1  1880     F      Mary  7065 0.07238433
##  2  1880     F      Anna  2604 0.02667923
##  3  1880     F      Emma  2003 0.02052170
##  4  1880     F Elizabeth  1939 0.01986599
##  5  1880     F    Minnie  1746 0.01788861
##  6  1880     F  Margaret  1578 0.01616737
##  7  1880     F       Ida  1472 0.01508135
##  8  1880     F     Alice  1414 0.01448711
##  9  1880     F    Bertha  1320 0.01352404
## 10  1880     F     Sarah  1288 0.01319618
## # ... with 1,858,679 more rows
…
